{
  "project_info": {
    "project_number": "812313229098",
    "project_id": "g-1-2-180c2",
    "storage_bucket": "g-1-2-180c2.appspot.com"
  },
  "client": [
    {
      "client_info": {
        "mobilesdk_app_id": "1:812313229098:android:70bf6d72cb4a1e18899053",
        "android_client_info": {
          "package_name": "com.example.homework2"
        }
      },
      "oauth_client": [
        {
          "client_id": "812313229098-2jjpbenbt79vjd9s4uvoj8k5tulmql7m.apps.googleusercontent.com",
          "client_type": 3
        }
      ],
      "api_key": [
        {
          "current_key": "AIzaSyDl9v0uIOkTGEmLAQWxGLLiy6K2PUDz3mc"
        }
      ],
      "services": {
        "appinvite_service": {
          "other_platform_oauth_client": [
            {
              "client_id": "812313229098-2jjpbenbt79vjd9s4uvoj8k5tulmql7m.apps.googleusercontent.com",
              "client_type": 3
            }
          ]
        }
      }
    },
    {
      "client_info": {
        "mobilesdk_app_id": "1:812313229098:android:e8a8a7c26f309131899053",
        "android_client_info": {
          "package_name": "com.example.myapplication"
        }
      },
      "oauth_client": [
        {
          "client_id": "812313229098-2jjpbenbt79vjd9s4uvoj8k5tulmql7m.apps.googleusercontent.com",
          "client_type": 3
        }
      ],
      "api_key": [
        {
          "current_key": "AIzaSyDl9v0uIOkTGEmLAQWxGLLiy6K2PUDz3mc"
        }
      ],
      "services": {
        "appinvite_service": {
          "other_platform_oauth_client": [
            {
              "client_id": "812313229098-2jjpbenbt79vjd9s4uvoj8k5tulmql7m.apps.googleusercontent.com",
              "client_type": 3
            }
          ]
        }
      }
    }
  ],
  "configuration_version": "1"
}